cpsc420-lab2/dump/jalr-byp-disasm2.out
WARNING: ../pv2byp/pv2byp-sim.v:154: $readmemh: Standard inconsistency, following 1364-2005.
VCD info: dumpfile ../tests/build/vmh/parcv2-jalr.vcd opened for output.
00080000: 241d000e: addiu r29, r 0, 000e 
r00=xxxxxxxx r01=xxxxxxxx r02=xxxxxxxx r03=xxxxxxxx r04=xxxxxxxx r05=xxxxxxxx
r06=xxxxxxxx r07=xxxxxxxx r08=xxxxxxxx r09=xxxxxxxx r10=xxxxxxxx r11=xxxxxxxx
r12=xxxxxxxx r13=xxxxxxxx r14=xxxxxxxx r15=xxxxxxxx r16=xxxxxxxx r17=xxxxxxxx
r18=xxxxxxxx r19=xxxxxxxx r20=xxxxxxxx r21=xxxxxxxx r22=xxxxxxxx r23=xxxxxxxx
r24=xxxxxxxx r25=xxxxxxxx r26=xxxxxxxx r27=xxxxxxxx r28=xxxxxxxx r29=0000000e
r30=xxxxxxxx r31=xxxxxxxx
-----
00080004: 241f0000: addiu r31, r 0, 0000 
r00=xxxxxxxx r01=xxxxxxxx r02=xxxxxxxx r03=xxxxxxxx r04=xxxxxxxx r05=xxxxxxxx
r06=xxxxxxxx r07=xxxxxxxx r08=xxxxxxxx r09=xxxxxxxx r10=xxxxxxxx r11=xxxxxxxx
r12=xxxxxxxx r13=xxxxxxxx r14=xxxxxxxx r15=xxxxxxxx r16=xxxxxxxx r17=xxxxxxxx
r18=xxxxxxxx r19=xxxxxxxx r20=xxxxxxxx r21=xxxxxxxx r22=xxxxxxxx r23=xxxxxxxx
r24=xxxxxxxx r25=xxxxxxxx r26=xxxxxxxx r27=xxxxxxxx r28=xxxxxxxx r29=0000000e
r30=xxxxxxxx r31=00000000
-----
00080008: 3c030008: lui   r 3, 0008      
r00=xxxxxxxx r01=xxxxxxxx r02=xxxxxxxx r03=00080000 r04=xxxxxxxx r05=xxxxxxxx
r06=xxxxxxxx r07=xxxxxxxx r08=xxxxxxxx r09=xxxxxxxx r10=xxxxxxxx r11=xxxxxxxx
r12=xxxxxxxx r13=xxxxxxxx r14=xxxxxxxx r15=xxxxxxxx r16=xxxxxxxx r17=xxxxxxxx
r18=xxxxxxxx r19=xxxxxxxx r20=xxxxxxxx r21=xxxxxxxx r22=xxxxxxxx r23=xxxxxxxx
r24=xxxxxxxx r25=xxxxxxxx r26=xxxxxxxx r27=xxxxxxxx r28=xxxxxxxx r29=0000000e
r30=xxxxxxxx r31=00000000
-----
0008000c: 24630024: addiu r 3, r 3, 0024 
r00=xxxxxxxx r01=xxxxxxxx r02=xxxxxxxx r03=00080024 r04=xxxxxxxx r05=xxxxxxxx
r06=xxxxxxxx r07=xxxxxxxx r08=xxxxxxxx r09=xxxxxxxx r10=xxxxxxxx r11=xxxxxxxx
r12=xxxxxxxx r13=xxxxxxxx r14=xxxxxxxx r15=xxxxxxxx r16=xxxxxxxx r17=xxxxxxxx
r18=xxxxxxxx r19=xxxxxxxx r20=xxxxxxxx r21=xxxxxxxx r22=xxxxxxxx r23=xxxxxxxx
r24=xxxxxxxx r25=xxxxxxxx r26=xxxxxxxx r27=xxxxxxxx r28=xxxxxxxx r29=0000000e
r30=xxxxxxxx r31=00000000
-----
00080010: 00608009: jalr  r16, r 3       >> jump based on reg3, store current loc in reg 16
r00=xxxxxxxx r01=xxxxxxxx r02=xxxxxxxx r03=00080024 r04=xxxxxxxx r05=xxxxxxxx
r06=xxxxxxxx r07=xxxxxxxx r08=xxxxxxxx r09=xxxxxxxx r10=xxxxxxxx r11=xxxxxxxx
r12=xxxxxxxx r13=xxxxxxxx r14=xxxxxxxx r15=xxxxxxxx r16=00100038 r17=xxxxxxxx
r18=xxxxxxxx r19=xxxxxxxx r20=xxxxxxxx r21=xxxxxxxx r22=xxxxxxxx r23=xxxxxxxx
r24=xxxxxxxx r25=xxxxxxxx r26=xxxxxxxx r27=xxxxxxxx r28=xxxxxxxx r29=0000000e
r30=xxxxxxxx r31=00000000
-----
00080024: 3c020008: lui   r 2, 0008      
r00=xxxxxxxx r01=xxxxxxxx r02=00080000 r03=00080024 r04=xxxxxxxx r05=xxxxxxxx
r06=xxxxxxxx r07=xxxxxxxx r08=xxxxxxxx r09=xxxxxxxx r10=xxxxxxxx r11=xxxxxxxx
r12=xxxxxxxx r13=xxxxxxxx r14=xxxxxxxx r15=xxxxxxxx r16=00100038 r17=xxxxxxxx
r18=xxxxxxxx r19=xxxxxxxx r20=xxxxxxxx r21=xxxxxxxx r22=xxxxxxxx r23=xxxxxxxx
r24=xxxxxxxx r25=xxxxxxxx r26=xxxxxxxx r27=xxxxxxxx r28=xxxxxxxx r29=0000000e
r30=xxxxxxxx r31=00000000
-----
00080028: 24420010: addiu r 2, r 2, 0010 
r00=xxxxxxxx r01=xxxxxxxx r02=00080010 r03=00080024 r04=xxxxxxxx r05=xxxxxxxx
r06=xxxxxxxx r07=xxxxxxxx r08=xxxxxxxx r09=xxxxxxxx r10=xxxxxxxx r11=xxxxxxxx
r12=xxxxxxxx r13=xxxxxxxx r14=xxxxxxxx r15=xxxxxxxx r16=00100038 r17=xxxxxxxx
r18=xxxxxxxx r19=xxxxxxxx r20=xxxxxxxx r21=xxxxxxxx r22=xxxxxxxx r23=xxxxxxxx
r24=xxxxxxxx r25=xxxxxxxx r26=xxxxxxxx r27=xxxxxxxx r28=xxxxxxxx r29=0000000e
r30=xxxxxxxx r31=00000000
-----
0008002c: 24420004: addiu r 2, r 2, 0004 
r00=xxxxxxxx r01=xxxxxxxx r02=00080014 r03=00080024 r04=xxxxxxxx r05=xxxxxxxx
r06=xxxxxxxx r07=xxxxxxxx r08=xxxxxxxx r09=xxxxxxxx r10=xxxxxxxx r11=xxxxxxxx
r12=xxxxxxxx r13=xxxxxxxx r14=xxxxxxxx r15=xxxxxxxx r16=00100038 r17=xxxxxxxx
r18=xxxxxxxx r19=xxxxxxxx r20=xxxxxxxx r21=xxxxxxxx r22=xxxxxxxx r23=xxxxxxxx
r24=xxxxxxxx r25=xxxxxxxx r26=xxxxxxxx r27=xxxxxxxx r28=xxxxxxxx r29=0000000e
r30=xxxxxxxx r31=00000000
-----
00080030: 14500037: bne   r 2, r16, 0037 
r00=xxxxxxxx r01=xxxxxxxx r02=00080014 r03=00080024 r04=xxxxxxxx r05=xxxxxxxx
r06=xxxxxxxx r07=xxxxxxxx r08=xxxxxxxx r09=xxxxxxxx r10=xxxxxxxx r11=xxxxxxxx
r12=xxxxxxxx r13=xxxxxxxx r14=xxxxxxxx r15=xxxxxxxx r16=00100038 r17=xxxxxxxx
r18=xxxxxxxx r19=xxxxxxxx r20=xxxxxxxx r21=xxxxxxxx r22=xxxxxxxx r23=xxxxxxxx
r24=xxxxxxxx r25=xxxxxxxx r26=xxxxxxxx r27=xxxxxxxx r28=xxxxxxxx r29=0000000e
r30=xxxxxxxx r31=00000000
-----
00080110: 24020001: addiu r 2, r 0, 0001 
r00=xxxxxxxx r01=xxxxxxxx r02=00000001 r03=00080024 r04=xxxxxxxx r05=xxxxxxxx
r06=xxxxxxxx r07=xxxxxxxx r08=xxxxxxxx r09=xxxxxxxx r10=xxxxxxxx r11=xxxxxxxx
r12=xxxxxxxx r13=xxxxxxxx r14=xxxxxxxx r15=xxxxxxxx r16=00100038 r17=xxxxxxxx
r18=xxxxxxxx r19=xxxxxxxx r20=xxxxxxxx r21=xxxxxxxx r22=xxxxxxxx r23=xxxxxxxx
r24=xxxxxxxx r25=xxxxxxxx r26=xxxxxxxx r27=xxxxxxxx r28=xxxxxxxx r29=0000000e
r30=xxxxxxxx r31=00000000
-----
*** FAILED *** (status =         14)
00080114: 409da800: mtc0  r29, r21       
r00=xxxxxxxx r01=xxxxxxxx r02=00000001 r03=00080024 r04=xxxxxxxx r05=xxxxxxxx
r06=xxxxxxxx r07=xxxxxxxx r08=xxxxxxxx r09=xxxxxxxx r10=xxxxxxxx r11=xxxxxxxx
r12=xxxxxxxx r13=xxxxxxxx r14=xxxxxxxx r15=xxxxxxxx r16=00100038 r17=xxxxxxxx
r18=xxxxxxxx r19=xxxxxxxx r20=xxxxxxxx r21=xxxxxxxx r22=xxxxxxxx r23=xxxxxxxx
r24=xxxxxxxx r25=xxxxxxxx r26=xxxxxxxx r27=xxxxxxxx r28=xxxxxxxx r29=0000000e
r30=xxxxxxxx r31=00000000
-----
00080118: 1402ffff: bne   r 0, r 2, ffff 
