cpsc420-lab2/dump/lw-byp-disasm2.out
WARNING: ../pv2byp/pv2byp-sim.v:154: $readmemh: Standard inconsistency, following 1364-2005.
VCD info: dumpfile ../tests/build/vmh/parcv1-lw.vcd opened for output.
00080000: 3c020008: lui   r 2, 0008      
r00=xxxxxxxx r01=xxxxxxxx r02=00080000 r03=xxxxxxxx r04=xxxxxxxx r05=xxxxxxxx
r06=xxxxxxxx r07=xxxxxxxx r08=xxxxxxxx r09=xxxxxxxx r10=xxxxxxxx r11=xxxxxxxx
r12=xxxxxxxx r13=xxxxxxxx r14=xxxxxxxx r15=xxxxxxxx r16=xxxxxxxx r17=xxxxxxxx
r18=xxxxxxxx r19=xxxxxxxx r20=xxxxxxxx r21=xxxxxxxx r22=xxxxxxxx r23=xxxxxxxx
r24=xxxxxxxx r25=xxxxxxxx r26=xxxxxxxx r27=xxxxxxxx r28=xxxxxxxx r29=xxxxxxxx
r30=xxxxxxxx r31=xxxxxxxx
-----
00080004: 24420340: addiu r 2, r 2, 0340 
r00=xxxxxxxx r01=xxxxxxxx r02=00080340 r03=xxxxxxxx r04=xxxxxxxx r05=xxxxxxxx
r06=xxxxxxxx r07=xxxxxxxx r08=xxxxxxxx r09=xxxxxxxx r10=xxxxxxxx r11=xxxxxxxx
r12=xxxxxxxx r13=xxxxxxxx r14=xxxxxxxx r15=xxxxxxxx r16=xxxxxxxx r17=xxxxxxxx
r18=xxxxxxxx r19=xxxxxxxx r20=xxxxxxxx r21=xxxxxxxx r22=xxxxxxxx r23=xxxxxxxx
r24=xxxxxxxx r25=xxxxxxxx r26=xxxxxxxx r27=xxxxxxxx r28=xxxxxxxx r29=xxxxxxxx
r30=xxxxxxxx r31=xxxxxxxx
-----
00080008: 8c440000: lw    r 4, 0000(r 2) 
r00=xxxxxxxx r01=xxxxxxxx r02=00080340 r03=xxxxxxxx r04=000000ff r05=xxxxxxxx
r06=xxxxxxxx r07=xxxxxxxx r08=xxxxxxxx r09=xxxxxxxx r10=xxxxxxxx r11=xxxxxxxx
r12=xxxxxxxx r13=xxxxxxxx r14=xxxxxxxx r15=xxxxxxxx r16=xxxxxxxx r17=xxxxxxxx
r18=xxxxxxxx r19=xxxxxxxx r20=xxxxxxxx r21=xxxxxxxx r22=xxxxxxxx r23=xxxxxxxx
r24=xxxxxxxx r25=xxxxxxxx r26=xxxxxxxx r27=xxxxxxxx r28=xxxxxxxx r29=xxxxxxxx
r30=xxxxxxxx r31=xxxxxxxx
-----
0008000c: 241d000d: addiu r29, r 0, 000d 
r00=xxxxxxxx r01=xxxxxxxx r02=00080340 r03=xxxxxxxx r04=000000ff r05=xxxxxxxx
r06=xxxxxxxx r07=xxxxxxxx r08=xxxxxxxx r09=xxxxxxxx r10=xxxxxxxx r11=xxxxxxxx
r12=xxxxxxxx r13=xxxxxxxx r14=xxxxxxxx r15=xxxxxxxx r16=xxxxxxxx r17=xxxxxxxx
r18=xxxxxxxx r19=xxxxxxxx r20=xxxxxxxx r21=xxxxxxxx r22=xxxxxxxx r23=xxxxxxxx
r24=xxxxxxxx r25=xxxxxxxx r26=xxxxxxxx r27=xxxxxxxx r28=xxxxxxxx r29=0000000d
r30=xxxxxxxx r31=xxxxxxxx
-----
00080010: 241e00ff: addiu r30, r 0, 00ff 
r00=xxxxxxxx r01=xxxxxxxx r02=00080340 r03=xxxxxxxx r04=000000ff r05=xxxxxxxx
r06=xxxxxxxx r07=xxxxxxxx r08=xxxxxxxx r09=xxxxxxxx r10=xxxxxxxx r11=xxxxxxxx
r12=xxxxxxxx r13=xxxxxxxx r14=xxxxxxxx r15=xxxxxxxx r16=xxxxxxxx r17=xxxxxxxx
r18=xxxxxxxx r19=xxxxxxxx r20=xxxxxxxx r21=xxxxxxxx r22=xxxxxxxx r23=xxxxxxxx
r24=xxxxxxxx r25=xxxxxxxx r26=xxxxxxxx r27=xxxxxxxx r28=xxxxxxxx r29=0000000d
r30=000000ff r31=xxxxxxxx
-----
00080014: 149e009c: bne   r 4, r30, 009c 
r00=xxxxxxxx r01=xxxxxxxx r02=00080340 r03=xxxxxxxx r04=000000ff r05=xxxxxxxx
r06=xxxxxxxx r07=xxxxxxxx r08=xxxxxxxx r09=xxxxxxxx r10=xxxxxxxx r11=xxxxxxxx
r12=xxxxxxxx r13=xxxxxxxx r14=xxxxxxxx r15=xxxxxxxx r16=xxxxxxxx r17=xxxxxxxx
r18=xxxxxxxx r19=xxxxxxxx r20=xxxxxxxx r21=xxxxxxxx r22=xxxxxxxx r23=xxxxxxxx
r24=xxxxxxxx r25=xxxxxxxx r26=xxxxxxxx r27=xxxxxxxx r28=xxxxxxxx r29=0000000d
r30=000000ff r31=xxxxxxxx
-----
00080018: 3c020008: lui   r 2, 0008      
r00=xxxxxxxx r01=xxxxxxxx r02=00080000 r03=xxxxxxxx r04=000000ff r05=xxxxxxxx
r06=xxxxxxxx r07=xxxxxxxx r08=xxxxxxxx r09=xxxxxxxx r10=xxxxxxxx r11=xxxxxxxx
r12=xxxxxxxx r13=xxxxxxxx r14=xxxxxxxx r15=xxxxxxxx r16=xxxxxxxx r17=xxxxxxxx
r18=xxxxxxxx r19=xxxxxxxx r20=xxxxxxxx r21=xxxxxxxx r22=xxxxxxxx r23=xxxxxxxx
r24=xxxxxxxx r25=xxxxxxxx r26=xxxxxxxx r27=xxxxxxxx r28=xxxxxxxx r29=0000000d
r30=000000ff r31=xxxxxxxx
-----
0008001c: 24420340: addiu r 2, r 2, 0340 
r00=xxxxxxxx r01=xxxxxxxx r02=00080340 r03=xxxxxxxx r04=000000ff r05=xxxxxxxx
r06=xxxxxxxx r07=xxxxxxxx r08=xxxxxxxx r09=xxxxxxxx r10=xxxxxxxx r11=xxxxxxxx
r12=xxxxxxxx r13=xxxxxxxx r14=xxxxxxxx r15=xxxxxxxx r16=xxxxxxxx r17=xxxxxxxx
r18=xxxxxxxx r19=xxxxxxxx r20=xxxxxxxx r21=xxxxxxxx r22=xxxxxxxx r23=xxxxxxxx
r24=xxxxxxxx r25=xxxxxxxx r26=xxxxxxxx r27=xxxxxxxx r28=xxxxxxxx r29=0000000d
r30=000000ff r31=xxxxxxxx
-----
00080020: 8c440004: lw    r 4, 0004(r 2) 
r00=xxxxxxxx r01=xxxxxxxx r02=00080340 r03=xxxxxxxx r04=00007f00 r05=xxxxxxxx
r06=xxxxxxxx r07=xxxxxxxx r08=xxxxxxxx r09=xxxxxxxx r10=xxxxxxxx r11=xxxxxxxx
r12=xxxxxxxx r13=xxxxxxxx r14=xxxxxxxx r15=xxxxxxxx r16=xxxxxxxx r17=xxxxxxxx
r18=xxxxxxxx r19=xxxxxxxx r20=xxxxxxxx r21=xxxxxxxx r22=xxxxxxxx r23=xxxxxxxx
r24=xxxxxxxx r25=xxxxxxxx r26=xxxxxxxx r27=xxxxxxxx r28=xxxxxxxx r29=0000000d
r30=000000ff r31=xxxxxxxx
-----
00080024: 241d000e: addiu r29, r 0, 000e 
r00=xxxxxxxx r01=xxxxxxxx r02=00080340 r03=xxxxxxxx r04=00007f00 r05=xxxxxxxx
r06=xxxxxxxx r07=xxxxxxxx r08=xxxxxxxx r09=xxxxxxxx r10=xxxxxxxx r11=xxxxxxxx
r12=xxxxxxxx r13=xxxxxxxx r14=xxxxxxxx r15=xxxxxxxx r16=xxxxxxxx r17=xxxxxxxx
r18=xxxxxxxx r19=xxxxxxxx r20=xxxxxxxx r21=xxxxxxxx r22=xxxxxxxx r23=xxxxxxxx
r24=xxxxxxxx r25=xxxxxxxx r26=xxxxxxxx r27=xxxxxxxx r28=xxxxxxxx r29=0000000e
r30=000000ff r31=xxxxxxxx
-----
00080028: 241e7f00: addiu r30, r 0, 7f00 
r00=xxxxxxxx r01=xxxxxxxx r02=00080340 r03=xxxxxxxx r04=00007f00 r05=xxxxxxxx
r06=xxxxxxxx r07=xxxxxxxx r08=xxxxxxxx r09=xxxxxxxx r10=xxxxxxxx r11=xxxxxxxx
r12=xxxxxxxx r13=xxxxxxxx r14=xxxxxxxx r15=xxxxxxxx r16=xxxxxxxx r17=xxxxxxxx
r18=xxxxxxxx r19=xxxxxxxx r20=xxxxxxxx r21=xxxxxxxx r22=xxxxxxxx r23=xxxxxxxx
r24=xxxxxxxx r25=xxxxxxxx r26=xxxxxxxx r27=xxxxxxxx r28=xxxxxxxx r29=0000000e
r30=00007f00 r31=xxxxxxxx
-----
0008002c: 149e0096: bne   r 4, r30, 0096 
r00=xxxxxxxx r01=xxxxxxxx r02=00080340 r03=xxxxxxxx r04=00007f00 r05=xxxxxxxx
r06=xxxxxxxx r07=xxxxxxxx r08=xxxxxxxx r09=xxxxxxxx r10=xxxxxxxx r11=xxxxxxxx
r12=xxxxxxxx r13=xxxxxxxx r14=xxxxxxxx r15=xxxxxxxx r16=xxxxxxxx r17=xxxxxxxx
r18=xxxxxxxx r19=xxxxxxxx r20=xxxxxxxx r21=xxxxxxxx r22=xxxxxxxx r23=xxxxxxxx
r24=xxxxxxxx r25=xxxxxxxx r26=xxxxxxxx r27=xxxxxxxx r28=xxxxxxxx r29=0000000e
r30=00007f00 r31=xxxxxxxx
-----
00080030: 3c020008: lui   r 2, 0008      
r00=xxxxxxxx r01=xxxxxxxx r02=00080000 r03=xxxxxxxx r04=00007f00 r05=xxxxxxxx
r06=xxxxxxxx r07=xxxxxxxx r08=xxxxxxxx r09=xxxxxxxx r10=xxxxxxxx r11=xxxxxxxx
r12=xxxxxxxx r13=xxxxxxxx r14=xxxxxxxx r15=xxxxxxxx r16=xxxxxxxx r17=xxxxxxxx
r18=xxxxxxxx r19=xxxxxxxx r20=xxxxxxxx r21=xxxxxxxx r22=xxxxxxxx r23=xxxxxxxx
r24=xxxxxxxx r25=xxxxxxxx r26=xxxxxxxx r27=xxxxxxxx r28=xxxxxxxx r29=0000000e
r30=00007f00 r31=xxxxxxxx
-----
00080034: 24420340: addiu r 2, r 2, 0340 
r00=xxxxxxxx r01=xxxxxxxx r02=00080340 r03=xxxxxxxx r04=00007f00 r05=xxxxxxxx
r06=xxxxxxxx r07=xxxxxxxx r08=xxxxxxxx r09=xxxxxxxx r10=xxxxxxxx r11=xxxxxxxx
r12=xxxxxxxx r13=xxxxxxxx r14=xxxxxxxx r15=xxxxxxxx r16=xxxxxxxx r17=xxxxxxxx
r18=xxxxxxxx r19=xxxxxxxx r20=xxxxxxxx r21=xxxxxxxx r22=xxxxxxxx r23=xxxxxxxx
r24=xxxxxxxx r25=xxxxxxxx r26=xxxxxxxx r27=xxxxxxxx r28=xxxxxxxx r29=0000000e
r30=00007f00 r31=xxxxxxxx
-----
00080038: 8c440008: lw    r 4, 0008(r 2) 
r00=xxxxxxxx r01=xxxxxxxx r02=00080340 r03=xxxxxxxx r04=00000ff0 r05=xxxxxxxx
r06=xxxxxxxx r07=xxxxxxxx r08=xxxxxxxx r09=xxxxxxxx r10=xxxxxxxx r11=xxxxxxxx
r12=xxxxxxxx r13=xxxxxxxx r14=xxxxxxxx r15=xxxxxxxx r16=xxxxxxxx r17=xxxxxxxx
r18=xxxxxxxx r19=xxxxxxxx r20=xxxxxxxx r21=xxxxxxxx r22=xxxxxxxx r23=xxxxxxxx
r24=xxxxxxxx r25=xxxxxxxx r26=xxxxxxxx r27=xxxxxxxx r28=xxxxxxxx r29=0000000e
r30=00007f00 r31=xxxxxxxx
-----
0008003c: 241d000f: addiu r29, r 0, 000f 
r00=xxxxxxxx r01=xxxxxxxx r02=00080340 r03=xxxxxxxx r04=00000ff0 r05=xxxxxxxx
r06=xxxxxxxx r07=xxxxxxxx r08=xxxxxxxx r09=xxxxxxxx r10=xxxxxxxx r11=xxxxxxxx
r12=xxxxxxxx r13=xxxxxxxx r14=xxxxxxxx r15=xxxxxxxx r16=xxxxxxxx r17=xxxxxxxx
r18=xxxxxxxx r19=xxxxxxxx r20=xxxxxxxx r21=xxxxxxxx r22=xxxxxxxx r23=xxxxxxxx
r24=xxxxxxxx r25=xxxxxxxx r26=xxxxxxxx r27=xxxxxxxx r28=xxxxxxxx r29=0000000f
r30=00007f00 r31=xxxxxxxx
-----
00080040: 241e0ff0: addiu r30, r 0, 0ff0 
r00=xxxxxxxx r01=xxxxxxxx r02=00080340 r03=xxxxxxxx r04=00000ff0 r05=xxxxxxxx
r06=xxxxxxxx r07=xxxxxxxx r08=xxxxxxxx r09=xxxxxxxx r10=xxxxxxxx r11=xxxxxxxx
r12=xxxxxxxx r13=xxxxxxxx r14=xxxxxxxx r15=xxxxxxxx r16=xxxxxxxx r17=xxxxxxxx
r18=xxxxxxxx r19=xxxxxxxx r20=xxxxxxxx r21=xxxxxxxx r22=xxxxxxxx r23=xxxxxxxx
r24=xxxxxxxx r25=xxxxxxxx r26=xxxxxxxx r27=xxxxxxxx r28=xxxxxxxx r29=0000000f
r30=00000ff0 r31=xxxxxxxx
-----
00080044: 149e0090: bne   r 4, r30, 0090 
r00=xxxxxxxx r01=xxxxxxxx r02=00080340 r03=xxxxxxxx r04=00000ff0 r05=xxxxxxxx
r06=xxxxxxxx r07=xxxxxxxx r08=xxxxxxxx r09=xxxxxxxx r10=xxxxxxxx r11=xxxxxxxx
r12=xxxxxxxx r13=xxxxxxxx r14=xxxxxxxx r15=xxxxxxxx r16=xxxxxxxx r17=xxxxxxxx
r18=xxxxxxxx r19=xxxxxxxx r20=xxxxxxxx r21=xxxxxxxx r22=xxxxxxxx r23=xxxxxxxx
r24=xxxxxxxx r25=xxxxxxxx r26=xxxxxxxx r27=xxxxxxxx r28=xxxxxxxx r29=0000000f
r30=00000ff0 r31=xxxxxxxx
-----
00080048: 3c020008: lui   r 2, 0008      
r00=xxxxxxxx r01=xxxxxxxx r02=00080000 r03=xxxxxxxx r04=00000ff0 r05=xxxxxxxx
r06=xxxxxxxx r07=xxxxxxxx r08=xxxxxxxx r09=xxxxxxxx r10=xxxxxxxx r11=xxxxxxxx
r12=xxxxxxxx r13=xxxxxxxx r14=xxxxxxxx r15=xxxxxxxx r16=xxxxxxxx r17=xxxxxxxx
r18=xxxxxxxx r19=xxxxxxxx r20=xxxxxxxx r21=xxxxxxxx r22=xxxxxxxx r23=xxxxxxxx
r24=xxxxxxxx r25=xxxxxxxx r26=xxxxxxxx r27=xxxxxxxx r28=xxxxxxxx r29=0000000f
r30=00000ff0 r31=xxxxxxxx
-----
0008004c: 24420340: addiu r 2, r 2, 0340 
r00=xxxxxxxx r01=xxxxxxxx r02=00080340 r03=xxxxxxxx r04=00000ff0 r05=xxxxxxxx
r06=xxxxxxxx r07=xxxxxxxx r08=xxxxxxxx r09=xxxxxxxx r10=xxxxxxxx r11=xxxxxxxx
r12=xxxxxxxx r13=xxxxxxxx r14=xxxxxxxx r15=xxxxxxxx r16=xxxxxxxx r17=xxxxxxxx
r18=xxxxxxxx r19=xxxxxxxx r20=xxxxxxxx r21=xxxxxxxx r22=xxxxxxxx r23=xxxxxxxx
r24=xxxxxxxx r25=xxxxxxxx r26=xxxxxxxx r27=xxxxxxxx r28=xxxxxxxx r29=0000000f
r30=00000ff0 r31=xxxxxxxx
-----
00080050: 8c44000c: lw    r 4, 000c(r 2) 
r00=xxxxxxxx r01=xxxxxxxx r02=00080340 r03=xxxxxxxx r04=0000700f r05=xxxxxxxx
r06=xxxxxxxx r07=xxxxxxxx r08=xxxxxxxx r09=xxxxxxxx r10=xxxxxxxx r11=xxxxxxxx
r12=xxxxxxxx r13=xxxxxxxx r14=xxxxxxxx r15=xxxxxxxx r16=xxxxxxxx r17=xxxxxxxx
r18=xxxxxxxx r19=xxxxxxxx r20=xxxxxxxx r21=xxxxxxxx r22=xxxxxxxx r23=xxxxxxxx
r24=xxxxxxxx r25=xxxxxxxx r26=xxxxxxxx r27=xxxxxxxx r28=xxxxxxxx r29=0000000f
r30=00000ff0 r31=xxxxxxxx
-----
00080054: 241d0010: addiu r29, r 0, 0010 
r00=xxxxxxxx r01=xxxxxxxx r02=00080340 r03=xxxxxxxx r04=0000700f r05=xxxxxxxx
r06=xxxxxxxx r07=xxxxxxxx r08=xxxxxxxx r09=xxxxxxxx r10=xxxxxxxx r11=xxxxxxxx
r12=xxxxxxxx r13=xxxxxxxx r14=xxxxxxxx r15=xxxxxxxx r16=xxxxxxxx r17=xxxxxxxx
r18=xxxxxxxx r19=xxxxxxxx r20=xxxxxxxx r21=xxxxxxxx r22=xxxxxxxx r23=xxxxxxxx
r24=xxxxxxxx r25=xxxxxxxx r26=xxxxxxxx r27=xxxxxxxx r28=xxxxxxxx r29=00000010
r30=00000ff0 r31=xxxxxxxx
-----
00080058: 241e700f: addiu r30, r 0, 700f 
r00=xxxxxxxx r01=xxxxxxxx r02=00080340 r03=xxxxxxxx r04=0000700f r05=xxxxxxxx
r06=xxxxxxxx r07=xxxxxxxx r08=xxxxxxxx r09=xxxxxxxx r10=xxxxxxxx r11=xxxxxxxx
r12=xxxxxxxx r13=xxxxxxxx r14=xxxxxxxx r15=xxxxxxxx r16=xxxxxxxx r17=xxxxxxxx
r18=xxxxxxxx r19=xxxxxxxx r20=xxxxxxxx r21=xxxxxxxx r22=xxxxxxxx r23=xxxxxxxx
r24=xxxxxxxx r25=xxxxxxxx r26=xxxxxxxx r27=xxxxxxxx r28=xxxxxxxx r29=00000010
r30=0000700f r31=xxxxxxxx
-----
0008005c: 149e008a: bne   r 4, r30, 008a 
r00=xxxxxxxx r01=xxxxxxxx r02=00080340 r03=xxxxxxxx r04=0000700f r05=xxxxxxxx
r06=xxxxxxxx r07=xxxxxxxx r08=xxxxxxxx r09=xxxxxxxx r10=xxxxxxxx r11=xxxxxxxx
r12=xxxxxxxx r13=xxxxxxxx r14=xxxxxxxx r15=xxxxxxxx r16=xxxxxxxx r17=xxxxxxxx
r18=xxxxxxxx r19=xxxxxxxx r20=xxxxxxxx r21=xxxxxxxx r22=xxxxxxxx r23=xxxxxxxx
r24=xxxxxxxx r25=xxxxxxxx r26=xxxxxxxx r27=xxxxxxxx r28=xxxxxxxx r29=00000010
r30=0000700f r31=xxxxxxxx
-----
00080060: 3c020008: lui   r 2, 0008      
r00=xxxxxxxx r01=xxxxxxxx r02=00080000 r03=xxxxxxxx r04=0000700f r05=xxxxxxxx
r06=xxxxxxxx r07=xxxxxxxx r08=xxxxxxxx r09=xxxxxxxx r10=xxxxxxxx r11=xxxxxxxx
r12=xxxxxxxx r13=xxxxxxxx r14=xxxxxxxx r15=xxxxxxxx r16=xxxxxxxx r17=xxxxxxxx
r18=xxxxxxxx r19=xxxxxxxx r20=xxxxxxxx r21=xxxxxxxx r22=xxxxxxxx r23=xxxxxxxx
r24=xxxxxxxx r25=xxxxxxxx r26=xxxxxxxx r27=xxxxxxxx r28=xxxxxxxx r29=00000010
r30=0000700f r31=xxxxxxxx
-----
00080064: 2442034c: addiu r 2, r 2, 034c 
r00=xxxxxxxx r01=xxxxxxxx r02=0008034c r03=xxxxxxxx r04=0000700f r05=xxxxxxxx
r06=xxxxxxxx r07=xxxxxxxx r08=xxxxxxxx r09=xxxxxxxx r10=xxxxxxxx r11=xxxxxxxx
r12=xxxxxxxx r13=xxxxxxxx r14=xxxxxxxx r15=xxxxxxxx r16=xxxxxxxx r17=xxxxxxxx
r18=xxxxxxxx r19=xxxxxxxx r20=xxxxxxxx r21=xxxxxxxx r22=xxxxxxxx r23=xxxxxxxx
r24=xxxxxxxx r25=xxxxxxxx r26=xxxxxxxx r27=xxxxxxxx r28=xxxxxxxx r29=00000010
r30=0000700f r31=xxxxxxxx
-----
00080068: 8c44fff4: lw    r 4, fff4(r 2) 
r00=xxxxxxxx r01=xxxxxxxx r02=0008034c r03=xxxxxxxx r04=000000ff r05=xxxxxxxx
r06=xxxxxxxx r07=xxxxxxxx r08=xxxxxxxx r09=xxxxxxxx r10=xxxxxxxx r11=xxxxxxxx
r12=xxxxxxxx r13=xxxxxxxx r14=xxxxxxxx r15=xxxxxxxx r16=xxxxxxxx r17=xxxxxxxx
r18=xxxxxxxx r19=xxxxxxxx r20=xxxxxxxx r21=xxxxxxxx r22=xxxxxxxx r23=xxxxxxxx
r24=xxxxxxxx r25=xxxxxxxx r26=xxxxxxxx r27=xxxxxxxx r28=xxxxxxxx r29=00000010
r30=0000700f r31=xxxxxxxx
-----
0008006c: 241d0011: addiu r29, r 0, 0011 
r00=xxxxxxxx r01=xxxxxxxx r02=0008034c r03=xxxxxxxx r04=000000ff r05=xxxxxxxx
r06=xxxxxxxx r07=xxxxxxxx r08=xxxxxxxx r09=xxxxxxxx r10=xxxxxxxx r11=xxxxxxxx
r12=xxxxxxxx r13=xxxxxxxx r14=xxxxxxxx r15=xxxxxxxx r16=xxxxxxxx r17=xxxxxxxx
r18=xxxxxxxx r19=xxxxxxxx r20=xxxxxxxx r21=xxxxxxxx r22=xxxxxxxx r23=xxxxxxxx
r24=xxxxxxxx r25=xxxxxxxx r26=xxxxxxxx r27=xxxxxxxx r28=xxxxxxxx r29=00000011
r30=0000700f r31=xxxxxxxx
-----
00080070: 241e00ff: addiu r30, r 0, 00ff 
r00=xxxxxxxx r01=xxxxxxxx r02=0008034c r03=xxxxxxxx r04=000000ff r05=xxxxxxxx
r06=xxxxxxxx r07=xxxxxxxx r08=xxxxxxxx r09=xxxxxxxx r10=xxxxxxxx r11=xxxxxxxx
r12=xxxxxxxx r13=xxxxxxxx r14=xxxxxxxx r15=xxxxxxxx r16=xxxxxxxx r17=xxxxxxxx
r18=xxxxxxxx r19=xxxxxxxx r20=xxxxxxxx r21=xxxxxxxx r22=xxxxxxxx r23=xxxxxxxx
r24=xxxxxxxx r25=xxxxxxxx r26=xxxxxxxx r27=xxxxxxxx r28=xxxxxxxx r29=00000011
r30=000000ff r31=xxxxxxxx
-----
00080074: 149e0084: bne   r 4, r30, 0084 
r00=xxxxxxxx r01=xxxxxxxx r02=0008034c r03=xxxxxxxx r04=000000ff r05=xxxxxxxx
r06=xxxxxxxx r07=xxxxxxxx r08=xxxxxxxx r09=xxxxxxxx r10=xxxxxxxx r11=xxxxxxxx
r12=xxxxxxxx r13=xxxxxxxx r14=xxxxxxxx r15=xxxxxxxx r16=xxxxxxxx r17=xxxxxxxx
r18=xxxxxxxx r19=xxxxxxxx r20=xxxxxxxx r21=xxxxxxxx r22=xxxxxxxx r23=xxxxxxxx
r24=xxxxxxxx r25=xxxxxxxx r26=xxxxxxxx r27=xxxxxxxx r28=xxxxxxxx r29=00000011
r30=000000ff r31=xxxxxxxx
-----
00080078: 3c020008: lui   r 2, 0008      
r00=xxxxxxxx r01=xxxxxxxx r02=00080000 r03=xxxxxxxx r04=000000ff r05=xxxxxxxx
r06=xxxxxxxx r07=xxxxxxxx r08=xxxxxxxx r09=xxxxxxxx r10=xxxxxxxx r11=xxxxxxxx
r12=xxxxxxxx r13=xxxxxxxx r14=xxxxxxxx r15=xxxxxxxx r16=xxxxxxxx r17=xxxxxxxx
r18=xxxxxxxx r19=xxxxxxxx r20=xxxxxxxx r21=xxxxxxxx r22=xxxxxxxx r23=xxxxxxxx
r24=xxxxxxxx r25=xxxxxxxx r26=xxxxxxxx r27=xxxxxxxx r28=xxxxxxxx r29=00000011
r30=000000ff r31=xxxxxxxx
-----
0008007c: 2442034c: addiu r 2, r 2, 034c 
r00=xxxxxxxx r01=xxxxxxxx r02=0008034c r03=xxxxxxxx r04=000000ff r05=xxxxxxxx
r06=xxxxxxxx r07=xxxxxxxx r08=xxxxxxxx r09=xxxxxxxx r10=xxxxxxxx r11=xxxxxxxx
r12=xxxxxxxx r13=xxxxxxxx r14=xxxxxxxx r15=xxxxxxxx r16=xxxxxxxx r17=xxxxxxxx
r18=xxxxxxxx r19=xxxxxxxx r20=xxxxxxxx r21=xxxxxxxx r22=xxxxxxxx r23=xxxxxxxx
r24=xxxxxxxx r25=xxxxxxxx r26=xxxxxxxx r27=xxxxxxxx r28=xxxxxxxx r29=00000011
r30=000000ff r31=xxxxxxxx
-----
00080080: 8c44fff8: lw    r 4, fff8(r 2) 
r00=xxxxxxxx r01=xxxxxxxx r02=0008034c r03=xxxxxxxx r04=00007f00 r05=xxxxxxxx
r06=xxxxxxxx r07=xxxxxxxx r08=xxxxxxxx r09=xxxxxxxx r10=xxxxxxxx r11=xxxxxxxx
r12=xxxxxxxx r13=xxxxxxxx r14=xxxxxxxx r15=xxxxxxxx r16=xxxxxxxx r17=xxxxxxxx
r18=xxxxxxxx r19=xxxxxxxx r20=xxxxxxxx r21=xxxxxxxx r22=xxxxxxxx r23=xxxxxxxx
r24=xxxxxxxx r25=xxxxxxxx r26=xxxxxxxx r27=xxxxxxxx r28=xxxxxxxx r29=00000011
r30=000000ff r31=xxxxxxxx
-----
00080084: 241d0012: addiu r29, r 0, 0012 
r00=xxxxxxxx r01=xxxxxxxx r02=0008034c r03=xxxxxxxx r04=00007f00 r05=xxxxxxxx
r06=xxxxxxxx r07=xxxxxxxx r08=xxxxxxxx r09=xxxxxxxx r10=xxxxxxxx r11=xxxxxxxx
r12=xxxxxxxx r13=xxxxxxxx r14=xxxxxxxx r15=xxxxxxxx r16=xxxxxxxx r17=xxxxxxxx
r18=xxxxxxxx r19=xxxxxxxx r20=xxxxxxxx r21=xxxxxxxx r22=xxxxxxxx r23=xxxxxxxx
r24=xxxxxxxx r25=xxxxxxxx r26=xxxxxxxx r27=xxxxxxxx r28=xxxxxxxx r29=00000012
r30=000000ff r31=xxxxxxxx
-----
00080088: 241e7f00: addiu r30, r 0, 7f00 
r00=xxxxxxxx r01=xxxxxxxx r02=0008034c r03=xxxxxxxx r04=00007f00 r05=xxxxxxxx
r06=xxxxxxxx r07=xxxxxxxx r08=xxxxxxxx r09=xxxxxxxx r10=xxxxxxxx r11=xxxxxxxx
r12=xxxxxxxx r13=xxxxxxxx r14=xxxxxxxx r15=xxxxxxxx r16=xxxxxxxx r17=xxxxxxxx
r18=xxxxxxxx r19=xxxxxxxx r20=xxxxxxxx r21=xxxxxxxx r22=xxxxxxxx r23=xxxxxxxx
r24=xxxxxxxx r25=xxxxxxxx r26=xxxxxxxx r27=xxxxxxxx r28=xxxxxxxx r29=00000012
r30=00007f00 r31=xxxxxxxx
-----
0008008c: 149e007e: bne   r 4, r30, 007e 
r00=xxxxxxxx r01=xxxxxxxx r02=0008034c r03=xxxxxxxx r04=00007f00 r05=xxxxxxxx
r06=xxxxxxxx r07=xxxxxxxx r08=xxxxxxxx r09=xxxxxxxx r10=xxxxxxxx r11=xxxxxxxx
r12=xxxxxxxx r13=xxxxxxxx r14=xxxxxxxx r15=xxxxxxxx r16=xxxxxxxx r17=xxxxxxxx
r18=xxxxxxxx r19=xxxxxxxx r20=xxxxxxxx r21=xxxxxxxx r22=xxxxxxxx r23=xxxxxxxx
r24=xxxxxxxx r25=xxxxxxxx r26=xxxxxxxx r27=xxxxxxxx r28=xxxxxxxx r29=00000012
r30=00007f00 r31=xxxxxxxx
-----
00080090: 3c020008: lui   r 2, 0008      
r00=xxxxxxxx r01=xxxxxxxx r02=00080000 r03=xxxxxxxx r04=00007f00 r05=xxxxxxxx
r06=xxxxxxxx r07=xxxxxxxx r08=xxxxxxxx r09=xxxxxxxx r10=xxxxxxxx r11=xxxxxxxx
r12=xxxxxxxx r13=xxxxxxxx r14=xxxxxxxx r15=xxxxxxxx r16=xxxxxxxx r17=xxxxxxxx
r18=xxxxxxxx r19=xxxxxxxx r20=xxxxxxxx r21=xxxxxxxx r22=xxxxxxxx r23=xxxxxxxx
r24=xxxxxxxx r25=xxxxxxxx r26=xxxxxxxx r27=xxxxxxxx r28=xxxxxxxx r29=00000012
r30=00007f00 r31=xxxxxxxx
-----
00080094: 2442034c: addiu r 2, r 2, 034c 
r00=xxxxxxxx r01=xxxxxxxx r02=0008034c r03=xxxxxxxx r04=00007f00 r05=xxxxxxxx
r06=xxxxxxxx r07=xxxxxxxx r08=xxxxxxxx r09=xxxxxxxx r10=xxxxxxxx r11=xxxxxxxx
r12=xxxxxxxx r13=xxxxxxxx r14=xxxxxxxx r15=xxxxxxxx r16=xxxxxxxx r17=xxxxxxxx
r18=xxxxxxxx r19=xxxxxxxx r20=xxxxxxxx r21=xxxxxxxx r22=xxxxxxxx r23=xxxxxxxx
r24=xxxxxxxx r25=xxxxxxxx r26=xxxxxxxx r27=xxxxxxxx r28=xxxxxxxx r29=00000012
r30=00007f00 r31=xxxxxxxx
-----
00080098: 8c44fffc: lw    r 4, fffc(r 2) 
r00=xxxxxxxx r01=xxxxxxxx r02=0008034c r03=xxxxxxxx r04=00000ff0 r05=xxxxxxxx
r06=xxxxxxxx r07=xxxxxxxx r08=xxxxxxxx r09=xxxxxxxx r10=xxxxxxxx r11=xxxxxxxx
r12=xxxxxxxx r13=xxxxxxxx r14=xxxxxxxx r15=xxxxxxxx r16=xxxxxxxx r17=xxxxxxxx
r18=xxxxxxxx r19=xxxxxxxx r20=xxxxxxxx r21=xxxxxxxx r22=xxxxxxxx r23=xxxxxxxx
r24=xxxxxxxx r25=xxxxxxxx r26=xxxxxxxx r27=xxxxxxxx r28=xxxxxxxx r29=00000012
r30=00007f00 r31=xxxxxxxx
-----
0008009c: 241d0013: addiu r29, r 0, 0013 
r00=xxxxxxxx r01=xxxxxxxx r02=0008034c r03=xxxxxxxx r04=00000ff0 r05=xxxxxxxx
r06=xxxxxxxx r07=xxxxxxxx r08=xxxxxxxx r09=xxxxxxxx r10=xxxxxxxx r11=xxxxxxxx
r12=xxxxxxxx r13=xxxxxxxx r14=xxxxxxxx r15=xxxxxxxx r16=xxxxxxxx r17=xxxxxxxx
r18=xxxxxxxx r19=xxxxxxxx r20=xxxxxxxx r21=xxxxxxxx r22=xxxxxxxx r23=xxxxxxxx
r24=xxxxxxxx r25=xxxxxxxx r26=xxxxxxxx r27=xxxxxxxx r28=xxxxxxxx r29=00000013
