cpsc420-lab2/dump/sw-stall-disasm2.out
WARNING: ../pv2stall/pv2stall-sim.v:154: $readmemh: Standard inconsistency, following 1364-2005.
VCD info: dumpfile ../tests/build/vmh/parcv1-sw.vcd opened for output.
00080000: 3c020008: lui   r 2, 0008      
r00=xxxxxxxx r01=xxxxxxxx r02=00080000 r03=xxxxxxxx r04=xxxxxxxx r05=xxxxxxxx
r06=xxxxxxxx r07=xxxxxxxx r08=xxxxxxxx r09=xxxxxxxx r10=xxxxxxxx r11=xxxxxxxx
r12=xxxxxxxx r13=xxxxxxxx r14=xxxxxxxx r15=xxxxxxxx r16=xxxxxxxx r17=xxxxxxxx
r18=xxxxxxxx r19=xxxxxxxx r20=xxxxxxxx r21=xxxxxxxx r22=xxxxxxxx r23=xxxxxxxx
r24=xxxxxxxx r25=xxxxxxxx r26=xxxxxxxx r27=xxxxxxxx r28=xxxxxxxx r29=xxxxxxxx
r30=xxxxxxxx r31=xxxxxxxx
-----
00080004: 24420520: addiu r 2, r 2, 0520 
r00=xxxxxxxx r01=xxxxxxxx r02=00080520 r03=xxxxxxxx r04=xxxxxxxx r05=xxxxxxxx
r06=xxxxxxxx r07=xxxxxxxx r08=xxxxxxxx r09=xxxxxxxx r10=xxxxxxxx r11=xxxxxxxx
r12=xxxxxxxx r13=xxxxxxxx r14=xxxxxxxx r15=xxxxxxxx r16=xxxxxxxx r17=xxxxxxxx
r18=xxxxxxxx r19=xxxxxxxx r20=xxxxxxxx r21=xxxxxxxx r22=xxxxxxxx r23=xxxxxxxx
r24=xxxxxxxx r25=xxxxxxxx r26=xxxxxxxx r27=xxxxxxxx r28=xxxxxxxx r29=xxxxxxxx
r30=xxxxxxxx r31=xxxxxxxx
-----
00080008: 240300ff: addiu r 3, r 0, 00ff 
r00=xxxxxxxx r01=xxxxxxxx r02=00080520 r03=000000ff r04=xxxxxxxx r05=xxxxxxxx
r06=xxxxxxxx r07=xxxxxxxx r08=xxxxxxxx r09=xxxxxxxx r10=xxxxxxxx r11=xxxxxxxx
r12=xxxxxxxx r13=xxxxxxxx r14=xxxxxxxx r15=xxxxxxxx r16=xxxxxxxx r17=xxxxxxxx
r18=xxxxxxxx r19=xxxxxxxx r20=xxxxxxxx r21=xxxxxxxx r22=xxxxxxxx r23=xxxxxxxx
r24=xxxxxxxx r25=xxxxxxxx r26=xxxxxxxx r27=xxxxxxxx r28=xxxxxxxx r29=xxxxxxxx
r30=xxxxxxxx r31=xxxxxxxx
-----
0008000c: ac430000: sw    r 3, 0000(r 2) 
r00=xxxxxxxx r01=xxxxxxxx r02=00080520 r03=000000ff r04=xxxxxxxx r05=xxxxxxxx
r06=xxxxxxxx r07=xxxxxxxx r08=xxxxxxxx r09=xxxxxxxx r10=xxxxxxxx r11=xxxxxxxx
r12=xxxxxxxx r13=xxxxxxxx r14=xxxxxxxx r15=xxxxxxxx r16=xxxxxxxx r17=xxxxxxxx
r18=xxxxxxxx r19=xxxxxxxx r20=xxxxxxxx r21=xxxxxxxx r22=xxxxxxxx r23=xxxxxxxx
r24=xxxxxxxx r25=xxxxxxxx r26=xxxxxxxx r27=xxxxxxxx r28=xxxxxxxx r29=xxxxxxxx
r30=xxxxxxxx r31=xxxxxxxx
-----
00080010: 8c440000: lw    r 4, 0000(r 2) 
r00=xxxxxxxx r01=xxxxxxxx r02=00080520 r03=000000ff r04=000000ff r05=xxxxxxxx
r06=xxxxxxxx r07=xxxxxxxx r08=xxxxxxxx r09=xxxxxxxx r10=xxxxxxxx r11=xxxxxxxx
r12=xxxxxxxx r13=xxxxxxxx r14=xxxxxxxx r15=xxxxxxxx r16=xxxxxxxx r17=xxxxxxxx
r18=xxxxxxxx r19=xxxxxxxx r20=xxxxxxxx r21=xxxxxxxx r22=xxxxxxxx r23=xxxxxxxx
r24=xxxxxxxx r25=xxxxxxxx r26=xxxxxxxx r27=xxxxxxxx r28=xxxxxxxx r29=xxxxxxxx
r30=xxxxxxxx r31=xxxxxxxx
-----
00080014: 241d000d: addiu r29, r 0, 000d 
r00=xxxxxxxx r01=xxxxxxxx r02=00080520 r03=000000ff r04=000000ff r05=xxxxxxxx
r06=xxxxxxxx r07=xxxxxxxx r08=xxxxxxxx r09=xxxxxxxx r10=xxxxxxxx r11=xxxxxxxx
r12=xxxxxxxx r13=xxxxxxxx r14=xxxxxxxx r15=xxxxxxxx r16=xxxxxxxx r17=xxxxxxxx
r18=xxxxxxxx r19=xxxxxxxx r20=xxxxxxxx r21=xxxxxxxx r22=xxxxxxxx r23=xxxxxxxx
r24=xxxxxxxx r25=xxxxxxxx r26=xxxxxxxx r27=xxxxxxxx r28=xxxxxxxx r29=0000000d
r30=xxxxxxxx r31=xxxxxxxx
-----
00080018: 241e00ff: addiu r30, r 0, 00ff 
r00=xxxxxxxx r01=xxxxxxxx r02=00080520 r03=000000ff r04=000000ff r05=xxxxxxxx
r06=xxxxxxxx r07=xxxxxxxx r08=xxxxxxxx r09=xxxxxxxx r10=xxxxxxxx r11=xxxxxxxx
r12=xxxxxxxx r13=xxxxxxxx r14=xxxxxxxx r15=xxxxxxxx r16=xxxxxxxx r17=xxxxxxxx
r18=xxxxxxxx r19=xxxxxxxx r20=xxxxxxxx r21=xxxxxxxx r22=xxxxxxxx r23=xxxxxxxx
r24=xxxxxxxx r25=xxxxxxxx r26=xxxxxxxx r27=xxxxxxxx r28=xxxxxxxx r29=0000000d
r30=000000ff r31=xxxxxxxx
-----
0008001c: 149e0114: bne   r 4, r30, 0114 
r00=xxxxxxxx r01=xxxxxxxx r02=00080520 r03=000000ff r04=000000ff r05=xxxxxxxx
r06=xxxxxxxx r07=xxxxxxxx r08=xxxxxxxx r09=xxxxxxxx r10=xxxxxxxx r11=xxxxxxxx
r12=xxxxxxxx r13=xxxxxxxx r14=xxxxxxxx r15=xxxxxxxx r16=xxxxxxxx r17=xxxxxxxx
r18=xxxxxxxx r19=xxxxxxxx r20=xxxxxxxx r21=xxxxxxxx r22=xxxxxxxx r23=xxxxxxxx
r24=xxxxxxxx r25=xxxxxxxx r26=xxxxxxxx r27=xxxxxxxx r28=xxxxxxxx r29=0000000d
r30=000000ff r31=xxxxxxxx
-----
00080020: 3c020008: lui   r 2, 0008      
r00=xxxxxxxx r01=xxxxxxxx r02=00080000 r03=000000ff r04=000000ff r05=xxxxxxxx
r06=xxxxxxxx r07=xxxxxxxx r08=xxxxxxxx r09=xxxxxxxx r10=xxxxxxxx r11=xxxxxxxx
r12=xxxxxxxx r13=xxxxxxxx r14=xxxxxxxx r15=xxxxxxxx r16=xxxxxxxx r17=xxxxxxxx
r18=xxxxxxxx r19=xxxxxxxx r20=xxxxxxxx r21=xxxxxxxx r22=xxxxxxxx r23=xxxxxxxx
r24=xxxxxxxx r25=xxxxxxxx r26=xxxxxxxx r27=xxxxxxxx r28=xxxxxxxx r29=0000000d
r30=000000ff r31=xxxxxxxx
-----
00080024: 24420520: addiu r 2, r 2, 0520 
r00=xxxxxxxx r01=xxxxxxxx r02=00080520 r03=000000ff r04=000000ff r05=xxxxxxxx
r06=xxxxxxxx r07=xxxxxxxx r08=xxxxxxxx r09=xxxxxxxx r10=xxxxxxxx r11=xxxxxxxx
r12=xxxxxxxx r13=xxxxxxxx r14=xxxxxxxx r15=xxxxxxxx r16=xxxxxxxx r17=xxxxxxxx
r18=xxxxxxxx r19=xxxxxxxx r20=xxxxxxxx r21=xxxxxxxx r22=xxxxxxxx r23=xxxxxxxx
r24=xxxxxxxx r25=xxxxxxxx r26=xxxxxxxx r27=xxxxxxxx r28=xxxxxxxx r29=0000000d
r30=000000ff r31=xxxxxxxx
-----
00080028: 24037f00: addiu r 3, r 0, 7f00 
r00=xxxxxxxx r01=xxxxxxxx r02=00080520 r03=00007f00 r04=000000ff r05=xxxxxxxx
r06=xxxxxxxx r07=xxxxxxxx r08=xxxxxxxx r09=xxxxxxxx r10=xxxxxxxx r11=xxxxxxxx
r12=xxxxxxxx r13=xxxxxxxx r14=xxxxxxxx r15=xxxxxxxx r16=xxxxxxxx r17=xxxxxxxx
r18=xxxxxxxx r19=xxxxxxxx r20=xxxxxxxx r21=xxxxxxxx r22=xxxxxxxx r23=xxxxxxxx
r24=xxxxxxxx r25=xxxxxxxx r26=xxxxxxxx r27=xxxxxxxx r28=xxxxxxxx r29=0000000d
r30=000000ff r31=xxxxxxxx
-----
0008002c: ac430004: sw    r 3, 0004(r 2) 
r00=xxxxxxxx r01=xxxxxxxx r02=00080520 r03=00007f00 r04=000000ff r05=xxxxxxxx
r06=xxxxxxxx r07=xxxxxxxx r08=xxxxxxxx r09=xxxxxxxx r10=xxxxxxxx r11=xxxxxxxx
r12=xxxxxxxx r13=xxxxxxxx r14=xxxxxxxx r15=xxxxxxxx r16=xxxxxxxx r17=xxxxxxxx
r18=xxxxxxxx r19=xxxxxxxx r20=xxxxxxxx r21=xxxxxxxx r22=xxxxxxxx r23=xxxxxxxx
r24=xxxxxxxx r25=xxxxxxxx r26=xxxxxxxx r27=xxxxxxxx r28=xxxxxxxx r29=0000000d
r30=000000ff r31=xxxxxxxx
-----
00080030: 8c440004: lw    r 4, 0004(r 2) 
r00=xxxxxxxx r01=xxxxxxxx r02=00080520 r03=00007f00 r04=00007f00 r05=xxxxxxxx
r06=xxxxxxxx r07=xxxxxxxx r08=xxxxxxxx r09=xxxxxxxx r10=xxxxxxxx r11=xxxxxxxx
r12=xxxxxxxx r13=xxxxxxxx r14=xxxxxxxx r15=xxxxxxxx r16=xxxxxxxx r17=xxxxxxxx
r18=xxxxxxxx r19=xxxxxxxx r20=xxxxxxxx r21=xxxxxxxx r22=xxxxxxxx r23=xxxxxxxx
r24=xxxxxxxx r25=xxxxxxxx r26=xxxxxxxx r27=xxxxxxxx r28=xxxxxxxx r29=0000000d
r30=000000ff r31=xxxxxxxx
-----
00080034: 241d000e: addiu r29, r 0, 000e 
r00=xxxxxxxx r01=xxxxxxxx r02=00080520 r03=00007f00 r04=00007f00 r05=xxxxxxxx
r06=xxxxxxxx r07=xxxxxxxx r08=xxxxxxxx r09=xxxxxxxx r10=xxxxxxxx r11=xxxxxxxx
r12=xxxxxxxx r13=xxxxxxxx r14=xxxxxxxx r15=xxxxxxxx r16=xxxxxxxx r17=xxxxxxxx
r18=xxxxxxxx r19=xxxxxxxx r20=xxxxxxxx r21=xxxxxxxx r22=xxxxxxxx r23=xxxxxxxx
r24=xxxxxxxx r25=xxxxxxxx r26=xxxxxxxx r27=xxxxxxxx r28=xxxxxxxx r29=0000000e
r30=000000ff r31=xxxxxxxx
-----
00080038: 241e7f00: addiu r30, r 0, 7f00 
r00=xxxxxxxx r01=xxxxxxxx r02=00080520 r03=00007f00 r04=00007f00 r05=xxxxxxxx
r06=xxxxxxxx r07=xxxxxxxx r08=xxxxxxxx r09=xxxxxxxx r10=xxxxxxxx r11=xxxxxxxx
r12=xxxxxxxx r13=xxxxxxxx r14=xxxxxxxx r15=xxxxxxxx r16=xxxxxxxx r17=xxxxxxxx
r18=xxxxxxxx r19=xxxxxxxx r20=xxxxxxxx r21=xxxxxxxx r22=xxxxxxxx r23=xxxxxxxx
r24=xxxxxxxx r25=xxxxxxxx r26=xxxxxxxx r27=xxxxxxxx r28=xxxxxxxx r29=0000000e
r30=00007f00 r31=xxxxxxxx
-----
0008003c: 149e010c: bne   r 4, r30, 010c 
r00=xxxxxxxx r01=xxxxxxxx r02=00080520 r03=00007f00 r04=00007f00 r05=xxxxxxxx
r06=xxxxxxxx r07=xxxxxxxx r08=xxxxxxxx r09=xxxxxxxx r10=xxxxxxxx r11=xxxxxxxx
r12=xxxxxxxx r13=xxxxxxxx r14=xxxxxxxx r15=xxxxxxxx r16=xxxxxxxx r17=xxxxxxxx
r18=xxxxxxxx r19=xxxxxxxx r20=xxxxxxxx r21=xxxxxxxx r22=xxxxxxxx r23=xxxxxxxx
r24=xxxxxxxx r25=xxxxxxxx r26=xxxxxxxx r27=xxxxxxxx r28=xxxxxxxx r29=0000000e
r30=00007f00 r31=xxxxxxxx
-----
00080040: 3c020008: lui   r 2, 0008      
r00=xxxxxxxx r01=xxxxxxxx r02=00080000 r03=00007f00 r04=00007f00 r05=xxxxxxxx
r06=xxxxxxxx r07=xxxxxxxx r08=xxxxxxxx r09=xxxxxxxx r10=xxxxxxxx r11=xxxxxxxx
r12=xxxxxxxx r13=xxxxxxxx r14=xxxxxxxx r15=xxxxxxxx r16=xxxxxxxx r17=xxxxxxxx
r18=xxxxxxxx r19=xxxxxxxx r20=xxxxxxxx r21=xxxxxxxx r22=xxxxxxxx r23=xxxxxxxx
r24=xxxxxxxx r25=xxxxxxxx r26=xxxxxxxx r27=xxxxxxxx r28=xxxxxxxx r29=0000000e
r30=00007f00 r31=xxxxxxxx
-----
00080044: 24420520: addiu r 2, r 2, 0520 
r00=xxxxxxxx r01=xxxxxxxx r02=00080520 r03=00007f00 r04=00007f00 r05=xxxxxxxx
r06=xxxxxxxx r07=xxxxxxxx r08=xxxxxxxx r09=xxxxxxxx r10=xxxxxxxx r11=xxxxxxxx
r12=xxxxxxxx r13=xxxxxxxx r14=xxxxxxxx r15=xxxxxxxx r16=xxxxxxxx r17=xxxxxxxx
r18=xxxxxxxx r19=xxxxxxxx r20=xxxxxxxx r21=xxxxxxxx r22=xxxxxxxx r23=xxxxxxxx
r24=xxxxxxxx r25=xxxxxxxx r26=xxxxxxxx r27=xxxxxxxx r28=xxxxxxxx r29=0000000e
r30=00007f00 r31=xxxxxxxx
-----
00080048: 24030ff0: addiu r 3, r 0, 0ff0 
r00=xxxxxxxx r01=xxxxxxxx r02=00080520 r03=00000ff0 r04=00007f00 r05=xxxxxxxx
r06=xxxxxxxx r07=xxxxxxxx r08=xxxxxxxx r09=xxxxxxxx r10=xxxxxxxx r11=xxxxxxxx
r12=xxxxxxxx r13=xxxxxxxx r14=xxxxxxxx r15=xxxxxxxx r16=xxxxxxxx r17=xxxxxxxx
r18=xxxxxxxx r19=xxxxxxxx r20=xxxxxxxx r21=xxxxxxxx r22=xxxxxxxx r23=xxxxxxxx
r24=xxxxxxxx r25=xxxxxxxx r26=xxxxxxxx r27=xxxxxxxx r28=xxxxxxxx r29=0000000e
r30=00007f00 r31=xxxxxxxx
-----
0008004c: ac430008: sw    r 3, 0008(r 2) 
r00=xxxxxxxx r01=xxxxxxxx r02=00080520 r03=00000ff0 r04=00007f00 r05=xxxxxxxx
r06=xxxxxxxx r07=xxxxxxxx r08=xxxxxxxx r09=xxxxxxxx r10=xxxxxxxx r11=xxxxxxxx
r12=xxxxxxxx r13=xxxxxxxx r14=xxxxxxxx r15=xxxxxxxx r16=xxxxxxxx r17=xxxxxxxx
r18=xxxxxxxx r19=xxxxxxxx r20=xxxxxxxx r21=xxxxxxxx r22=xxxxxxxx r23=xxxxxxxx
r24=xxxxxxxx r25=xxxxxxxx r26=xxxxxxxx r27=xxxxxxxx r28=xxxxxxxx r29=0000000e
r30=00007f00 r31=xxxxxxxx
-----
00080050: 8c440008: lw    r 4, 0008(r 2) 
r00=xxxxxxxx r01=xxxxxxxx r02=00080520 r03=00000ff0 r04=00000ff0 r05=xxxxxxxx
r06=xxxxxxxx r07=xxxxxxxx r08=xxxxxxxx r09=xxxxxxxx r10=xxxxxxxx r11=xxxxxxxx
r12=xxxxxxxx r13=xxxxxxxx r14=xxxxxxxx r15=xxxxxxxx r16=xxxxxxxx r17=xxxxxxxx
r18=xxxxxxxx r19=xxxxxxxx r20=xxxxxxxx r21=xxxxxxxx r22=xxxxxxxx r23=xxxxxxxx
r24=xxxxxxxx r25=xxxxxxxx r26=xxxxxxxx r27=xxxxxxxx r28=xxxxxxxx r29=0000000e
r30=00007f00 r31=xxxxxxxx
-----
00080054: 241d000f: addiu r29, r 0, 000f 
r00=xxxxxxxx r01=xxxxxxxx r02=00080520 r03=00000ff0 r04=00000ff0 r05=xxxxxxxx
r06=xxxxxxxx r07=xxxxxxxx r08=xxxxxxxx r09=xxxxxxxx r10=xxxxxxxx r11=xxxxxxxx
r12=xxxxxxxx r13=xxxxxxxx r14=xxxxxxxx r15=xxxxxxxx r16=xxxxxxxx r17=xxxxxxxx
r18=xxxxxxxx r19=xxxxxxxx r20=xxxxxxxx r21=xxxxxxxx r22=xxxxxxxx r23=xxxxxxxx
r24=xxxxxxxx r25=xxxxxxxx r26=xxxxxxxx r27=xxxxxxxx r28=xxxxxxxx r29=0000000f
r30=00007f00 r31=xxxxxxxx
-----
00080058: 241e0ff0: addiu r30, r 0, 0ff0 
r00=xxxxxxxx r01=xxxxxxxx r02=00080520 r03=00000ff0 r04=00000ff0 r05=xxxxxxxx
r06=xxxxxxxx r07=xxxxxxxx r08=xxxxxxxx r09=xxxxxxxx r10=xxxxxxxx r11=xxxxxxxx
r12=xxxxxxxx r13=xxxxxxxx r14=xxxxxxxx r15=xxxxxxxx r16=xxxxxxxx r17=xxxxxxxx
r18=xxxxxxxx r19=xxxxxxxx r20=xxxxxxxx r21=xxxxxxxx r22=xxxxxxxx r23=xxxxxxxx
r24=xxxxxxxx r25=xxxxxxxx r26=xxxxxxxx r27=xxxxxxxx r28=xxxxxxxx r29=0000000f
r30=00000ff0 r31=xxxxxxxx
-----
0008005c: 149e0104: bne   r 4, r30, 0104 
r00=xxxxxxxx r01=xxxxxxxx r02=00080520 r03=00000ff0 r04=00000ff0 r05=xxxxxxxx
r06=xxxxxxxx r07=xxxxxxxx r08=xxxxxxxx r09=xxxxxxxx r10=xxxxxxxx r11=xxxxxxxx
r12=xxxxxxxx r13=xxxxxxxx r14=xxxxxxxx r15=xxxxxxxx r16=xxxxxxxx r17=xxxxxxxx
r18=xxxxxxxx r19=xxxxxxxx r20=xxxxxxxx r21=xxxxxxxx r22=xxxxxxxx r23=xxxxxxxx
r24=xxxxxxxx r25=xxxxxxxx r26=xxxxxxxx r27=xxxxxxxx r28=xxxxxxxx r29=0000000f
r30=00000ff0 r31=xxxxxxxx
-----
00080060: 3c020008: lui   r 2, 0008      
r00=xxxxxxxx r01=xxxxxxxx r02=00080000 r03=00000ff0 r04=00000ff0 r05=xxxxxxxx
r06=xxxxxxxx r07=xxxxxxxx r08=xxxxxxxx r09=xxxxxxxx r10=xxxxxxxx r11=xxxxxxxx
r12=xxxxxxxx r13=xxxxxxxx r14=xxxxxxxx r15=xxxxxxxx r16=xxxxxxxx r17=xxxxxxxx
r18=xxxxxxxx r19=xxxxxxxx r20=xxxxxxxx r21=xxxxxxxx r22=xxxxxxxx r23=xxxxxxxx
r24=xxxxxxxx r25=xxxxxxxx r26=xxxxxxxx r27=xxxxxxxx r28=xxxxxxxx r29=0000000f
r30=00000ff0 r31=xxxxxxxx
-----
00080064: 24420520: addiu r 2, r 2, 0520 
r00=xxxxxxxx r01=xxxxxxxx r02=00080520 r03=00000ff0 r04=00000ff0 r05=xxxxxxxx
r06=xxxxxxxx r07=xxxxxxxx r08=xxxxxxxx r09=xxxxxxxx r10=xxxxxxxx r11=xxxxxxxx
r12=xxxxxxxx r13=xxxxxxxx r14=xxxxxxxx r15=xxxxxxxx r16=xxxxxxxx r17=xxxxxxxx
r18=xxxxxxxx r19=xxxxxxxx r20=xxxxxxxx r21=xxxxxxxx r22=xxxxxxxx r23=xxxxxxxx
r24=xxxxxxxx r25=xxxxxxxx r26=xxxxxxxx r27=xxxxxxxx r28=xxxxxxxx r29=0000000f
r30=00000ff0 r31=xxxxxxxx
-----
00080068: 2403700f: addiu r 3, r 0, 700f 
r00=xxxxxxxx r01=xxxxxxxx r02=00080520 r03=0000700f r04=00000ff0 r05=xxxxxxxx
r06=xxxxxxxx r07=xxxxxxxx r08=xxxxxxxx r09=xxxxxxxx r10=xxxxxxxx r11=xxxxxxxx
r12=xxxxxxxx r13=xxxxxxxx r14=xxxxxxxx r15=xxxxxxxx r16=xxxxxxxx r17=xxxxxxxx
r18=xxxxxxxx r19=xxxxxxxx r20=xxxxxxxx r21=xxxxxxxx r22=xxxxxxxx r23=xxxxxxxx
r24=xxxxxxxx r25=xxxxxxxx r26=xxxxxxxx r27=xxxxxxxx r28=xxxxxxxx r29=0000000f
r30=00000ff0 r31=xxxxxxxx
-----
0008006c: ac43000c: sw    r 3, 000c(r 2) 
r00=xxxxxxxx r01=xxxxxxxx r02=00080520 r03=0000700f r04=00000ff0 r05=xxxxxxxx
r06=xxxxxxxx r07=xxxxxxxx r08=xxxxxxxx r09=xxxxxxxx r10=xxxxxxxx r11=xxxxxxxx
r12=xxxxxxxx r13=xxxxxxxx r14=xxxxxxxx r15=xxxxxxxx r16=xxxxxxxx r17=xxxxxxxx
r18=xxxxxxxx r19=xxxxxxxx r20=xxxxxxxx r21=xxxxxxxx r22=xxxxxxxx r23=xxxxxxxx
r24=xxxxxxxx r25=xxxxxxxx r26=xxxxxxxx r27=xxxxxxxx r28=xxxxxxxx r29=0000000f
r30=00000ff0 r31=xxxxxxxx
-----
00080070: 8c44000c: lw    r 4, 000c(r 2) 
r00=xxxxxxxx r01=xxxxxxxx r02=00080520 r03=0000700f r04=0000700f r05=xxxxxxxx
r06=xxxxxxxx r07=xxxxxxxx r08=xxxxxxxx r09=xxxxxxxx r10=xxxxxxxx r11=xxxxxxxx
r12=xxxxxxxx r13=xxxxxxxx r14=xxxxxxxx r15=xxxxxxxx r16=xxxxxxxx r17=xxxxxxxx
r18=xxxxxxxx r19=xxxxxxxx r20=xxxxxxxx r21=xxxxxxxx r22=xxxxxxxx r23=xxxxxxxx
r24=xxxxxxxx r25=xxxxxxxx r26=xxxxxxxx r27=xxxxxxxx r28=xxxxxxxx r29=0000000f
r30=00000ff0 r31=xxxxxxxx
-----
00080074: 241d0010: addiu r29, r 0, 0010 
r00=xxxxxxxx r01=xxxxxxxx r02=00080520 r03=0000700f r04=0000700f r05=xxxxxxxx
r06=xxxxxxxx r07=xxxxxxxx r08=xxxxxxxx r09=xxxxxxxx r10=xxxxxxxx r11=xxxxxxxx
r12=xxxxxxxx r13=xxxxxxxx r14=xxxxxxxx r15=xxxxxxxx r16=xxxxxxxx r17=xxxxxxxx
r18=xxxxxxxx r19=xxxxxxxx r20=xxxxxxxx r21=xxxxxxxx r22=xxxxxxxx r23=xxxxxxxx
r24=xxxxxxxx r25=xxxxxxxx r26=xxxxxxxx r27=xxxxxxxx r28=xxxxxxxx r29=00000010
r30=00000ff0 r31=xxxxxxxx
-----
00080078: 241e700f: addiu r30, r 0, 700f 
r00=xxxxxxxx r01=xxxxxxxx r02=00080520 r03=0000700f r04=0000700f r05=xxxxxxxx
r06=xxxxxxxx r07=xxxxxxxx r08=xxxxxxxx r09=xxxxxxxx r10=xxxxxxxx r11=xxxxxxxx
r12=xxxxxxxx r13=xxxxxxxx r14=xxxxxxxx r15=xxxxxxxx r16=xxxxxxxx r17=xxxxxxxx
r18=xxxxxxxx r19=xxxxxxxx r20=xxxxxxxx r21=xxxxxxxx r22=xxxxxxxx r23=xxxxxxxx
r24=xxxxxxxx r25=xxxxxxxx r26=xxxxxxxx r27=xxxxxxxx r28=xxxxxxxx r29=00000010
r30=0000700f r31=xxxxxxxx
-----
0008007c: 149e00fc: bne   r 4, r30, 00fc 
r00=xxxxxxxx r01=xxxxxxxx r02=00080520 r03=0000700f r04=0000700f r05=xxxxxxxx
r06=xxxxxxxx r07=xxxxxxxx r08=xxxxxxxx r09=xxxxxxxx r10=xxxxxxxx r11=xxxxxxxx
r12=xxxxxxxx r13=xxxxxxxx r14=xxxxxxxx r15=xxxxxxxx r16=xxxxxxxx r17=xxxxxxxx
r18=xxxxxxxx r19=xxxxxxxx r20=xxxxxxxx r21=xxxxxxxx r22=xxxxxxxx r23=xxxxxxxx
r24=xxxxxxxx r25=xxxxxxxx r26=xxxxxxxx r27=xxxxxxxx r28=xxxxxxxx r29=00000010
r30=0000700f r31=xxxxxxxx
-----
00080080: 3c020008: lui   r 2, 0008      
r00=xxxxxxxx r01=xxxxxxxx r02=00080000 r03=0000700f r04=0000700f r05=xxxxxxxx
r06=xxxxxxxx r07=xxxxxxxx r08=xxxxxxxx r09=xxxxxxxx r10=xxxxxxxx r11=xxxxxxxx
r12=xxxxxxxx r13=xxxxxxxx r14=xxxxxxxx r15=xxxxxxxx r16=xxxxxxxx r17=xxxxxxxx
r18=xxxxxxxx r19=xxxxxxxx r20=xxxxxxxx r21=xxxxxxxx r22=xxxxxxxx r23=xxxxxxxx
r24=xxxxxxxx r25=xxxxxxxx r26=xxxxxxxx r27=xxxxxxxx r28=xxxxxxxx r29=00000010
r30=0000700f r31=xxxxxxxx
-----
00080084: 2442052c: addiu r 2, r 2, 052c 
r00=xxxxxxxx r01=xxxxxxxx r02=0008052c r03=0000700f r04=0000700f r05=xxxxxxxx
r06=xxxxxxxx r07=xxxxxxxx r08=xxxxxxxx r09=xxxxxxxx r10=xxxxxxxx r11=xxxxxxxx
r12=xxxxxxxx r13=xxxxxxxx r14=xxxxxxxx r15=xxxxxxxx r16=xxxxxxxx r17=xxxxxxxx
r18=xxxxxxxx r19=xxxxxxxx r20=xxxxxxxx r21=xxxxxxxx r22=xxxxxxxx r23=xxxxxxxx
r24=xxxxxxxx r25=xxxxxxxx r26=xxxxxxxx r27=xxxxxxxx r28=xxxxxxxx r29=00000010
r30=0000700f r31=xxxxxxxx
-----
00080088: 3c03dead: lui   r 3, dead      
r00=xxxxxxxx r01=xxxxxxxx r02=0008052c r03=dead0000 r04=0000700f r05=xxxxxxxx
r06=xxxxxxxx r07=xxxxxxxx r08=xxxxxxxx r09=xxxxxxxx r10=xxxxxxxx r11=xxxxxxxx
r12=xxxxxxxx r13=xxxxxxxx r14=xxxxxxxx r15=xxxxxxxx r16=xxxxxxxx r17=xxxxxxxx
r18=xxxxxxxx r19=xxxxxxxx r20=xxxxxxxx r21=xxxxxxxx r22=xxxxxxxx r23=xxxxxxxx
r24=xxxxxxxx r25=xxxxxxxx r26=xxxxxxxx r27=xxxxxxxx r28=xxxxxxxx r29=00000010
r30=0000700f r31=xxxxxxxx
-----
0008008c: 3463beef: ori   r 3, r 3, beef 
r00=xxxxxxxx r01=xxxxxxxx r02=0008052c r03=deadbeef r04=0000700f r05=xxxxxxxx
r06=xxxxxxxx r07=xxxxxxxx r08=xxxxxxxx r09=xxxxxxxx r10=xxxxxxxx r11=xxxxxxxx
r12=xxxxxxxx r13=xxxxxxxx r14=xxxxxxxx r15=xxxxxxxx r16=xxxxxxxx r17=xxxxxxxx
r18=xxxxxxxx r19=xxxxxxxx r20=xxxxxxxx r21=xxxxxxxx r22=xxxxxxxx r23=xxxxxxxx
r24=xxxxxxxx r25=xxxxxxxx r26=xxxxxxxx r27=xxxxxxxx r28=xxxxxxxx r29=00000010
r30=0000700f r31=xxxxxxxx
-----
00080090: ac43fff4: sw    r 3, fff4(r 2) 
r00=xxxxxxxx r01=xxxxxxxx r02=0008052c r03=deadbeef r04=0000700f r05=xxxxxxxx
r06=xxxxxxxx r07=xxxxxxxx r08=xxxxxxxx r09=xxxxxxxx r10=xxxxxxxx r11=xxxxxxxx
r12=xxxxxxxx r13=xxxxxxxx r14=xxxxxxxx r15=xxxxxxxx r16=xxxxxxxx r17=xxxxxxxx
r18=xxxxxxxx r19=xxxxxxxx r20=xxxxxxxx r21=xxxxxxxx r22=xxxxxxxx r23=xxxxxxxx
r24=xxxxxxxx r25=xxxxxxxx r26=xxxxxxxx r27=xxxxxxxx r28=xxxxxxxx r29=00000010
r30=0000700f r31=xxxxxxxx
-----
00080094: 8c44fff4: lw    r 4, fff4(r 2) 
r00=xxxxxxxx r01=xxxxxxxx r02=0008052c r03=deadbeef r04=deadbeef r05=xxxxxxxx
r06=xxxxxxxx r07=xxxxxxxx r08=xxxxxxxx r09=xxxxxxxx r10=xxxxxxxx r11=xxxxxxxx
r12=xxxxxxxx r13=xxxxxxxx r14=xxxxxxxx r15=xxxxxxxx r16=xxxxxxxx r17=xxxxxxxx
r18=xxxxxxxx r19=xxxxxxxx r20=xxxxxxxx r21=xxxxxxxx r22=xxxxxxxx r23=xxxxxxxx
r24=xxxxxxxx r25=xxxxxxxx r26=xxxxxxxx r27=xxxxxxxx r28=xxxxxxxx r29=00000010
r30=0000700f r31=xxxxxxxx
-----
00080098: 241d0011: addiu r29, r 0, 0011 
r00=xxxxxxxx r01=xxxxxxxx r02=0008052c r03=deadbeef r04=deadbeef r05=xxxxxxxx
r06=xxxxxxxx r07=xxxxxxxx r08=xxxxxxxx r09=xxxxxxxx r10=xxxxxxxx r11=xxxxxxxx
r12=xxxxxxxx r13=xxxxxxxx r14=xxxxxxxx r15=xxxxxxxx r16=xxxxxxxx r17=xxxxxxxx
r18=xxxxxxxx r19=xxxxxxxx r20=xxxxxxxx r21=xxxxxxxx r22=xxxxxxxx r23=xxxxxxxx
r24=xxxxxxxx r25=xxxxxxxx r26=xxxxxxxx r27=xxxxxxxx r28=xxxxxxxx r29=00000011
r30=0000700f r31=xxxxxxxx
-----
0008009c: 3c1edead: lui   r30, dead      
r00=xxxxxxxx r01=xxxxxxxx r02=0008052c r03=deadbeef r04=deadbeef r05=xxxxxxxx
r06=xxxxxxxx r07=xxxxxxxx r08=xxxxxxxx r09=xxxxxxxx r10=xxxxxxxx r11=xxxxxxxx
r12=xxxxxxxx r13=xxxxxxxx r14=xxxxxxxx r15=xxxxxxxx r16=xxxxxxxx r17=xxxxxxxx
r18=xxxxxxxx r19=xxxxxxxx r20=xxxxxxxx r21=xxxxxxxx r22=xxxxxxxx r23=xxxxxxxx
r24=xxxxxxxx r25=xxxxxxxx r26=xxxxxxxx r27=xxxxxxxx r28=xxxxxxxx r29=00000011
r30=dead0000 r31=xxxxxxxx
-----
000800a0: 37debeef: ori   r30, r30, beef 
